// Jest Snapshot v1, https://goo.gl/fbAQLP

exports[`cli changelog option should open CHANGELOG in current working directory if none specified 1`] = `
"{"notes":"##### Added\\n\\n- Add new feature 2\\n- Add yet another new feature\\n\\n##### Fixed\\n\\n- Really update \`foo\` to fix \`bar\`","title":"Version 3.1.1 (2019-03-06)"}
"
`;

exports[`cli changelog option should open specific changelog if specified with --changelog 1`] = `
"{"notes":"#### Added\\n\\n- Add new feature 1\\n- Add another new feature\\n\\n#### Fixed\\n\\n- Update \`foo\` to fix \`bar\`","title":"Version 2.1.0 (2019-02-03)"}
"
`;

exports[`cli changelog option should open specific changelog if specified with -c 1`] = `
"{"notes":"#### Added\\n\\n- Add new feature 1\\n- Add another new feature\\n\\n#### Fixed\\n\\n- Update \`foo\` to fix \`bar\`","title":"Version 2.1.0 (2019-02-03)"}
"
`;

exports[`cli format option should write release json to console if "json" format is specified with --format 1`] = `
"{"notes":"#### Added\\n\\n- Add new feature 1\\n- Add another new feature\\n\\n#### Fixed\\n\\n- Update \`foo\` to fix \`bar\`","title":"Version 2.1.0 (2019-02-03)"}
"
`;

exports[`cli format option should write release json to console if "json" format is specified with -f 1`] = `
"{"notes":"#### Added\\n\\n- Add new feature 1\\n- Add another new feature\\n\\n#### Fixed\\n\\n- Update \`foo\` to fix \`bar\`","title":"Version 2.1.0 (2019-02-03)"}
"
`;

exports[`cli format option should write release notes to console if "notes" format is specified with -f 1`] = `
"#### Added

- Add new feature 1
- Add another new feature

#### Fixed

- Update \`foo\` to fix \`bar\`
"
`;

exports[`cli format option should write release title to console if "title"format is specified with -f 1`] = `
"Version 2.1.0 (2019-02-03)
"
`;

exports[`cli should return expected results if changelog, format and version specified 1`] = `
"{"notes":"#### Added\\n\\n- Add new feature 1\\n- Add another new feature\\n\\n#### Fixed\\n\\n- Update \`foo\` to fix \`bar\`","title":"Version 2.1.0 (2019-02-03)"}
"
`;
